//-------------------------------------------------------------------------------------
// Loop !! Free Trial Version
// @2018 marching dream
// Version 1.1
// * This Asset is change name from "Loop !! Free Trial Version" to "Loop & Music Free" in version 1.1*
// * This Asset is rebuilding all files in version 1.1  *
//-------------------------------------------------------------------------------------


" Loop & Music Free " is free trial version of marching dream's loop & music asset(Vol.1-Vol.3) which music of various music genres such as Ambient, Chiptune, Dance, Electoronic, Epic, Pops, Rock in.
13 loop & 3 remix of loop & 14 music song(non loop) are included in this asset (file format is wav).


13 Loop is
- Loop Ambient 01(3:39)
- Loop Ambient 08(5:02)
- Loop Chiptune 01(1:52)
- Loop Dance 01(2:56)
- Loop Dance 04(3:04)
- Loop Electronic 01(2:48)
- Loop Electronic 06(1:36)
- Loop Epic 01(2:48)
- Loop Epic 02(3:48)
- Loop Pops 01(2:24)
- Loop Pops 05(3:12)
- Loop Rock 01(3:36)
- Loop Rock 06(2:30) 


14 Music
- Music Ambient003(4:28)
- Music Ambient006(8:41) 
- Music Chiptune005(2:07)
- Music Chiptune007(4:02)
- Music Dance002(1:48)
- Music Dance006(3:52)
- Music Electronic001(3:37)
- Music Electronic007(3:47)
- Music Epic001(3:21)
- Music Epic007(5:39)
- Music Pops008(3:17)
- Music Pops017(3:30)
- Music Rock001(3:07)
- Music Rock010(5:19)
* These songs are complete songs that are not composed only of intro and chorus but all from intro to outro.


3 Remix of loop
- Loop Pops 01 Remix001(3:36)
- Loop Rock 01 Remix001(3:34)
- Loop Rock 01 Remix002(3:34)
* These 3 remix songs was produced as a third anniversary of blog"UnityAssetStore Matome".
  UnityAssetStore Matome's URL is  http://www.asset-sale.net/
  This blog is a wonderful Japanese blog introducing assets in a very detailed and polite article.
 

If you like this asset, I'd be happy if you also consider purchasing a paid version of assets. 
Our publisher page is the following URL.

https://assetstore.unity.com/publishers/26878


I hope that the sound source that I make contributes to the creator's work.

from marching dream






Please check other loops & music in official site or official SoundCloud & more if you like this asset.

Official Site
http://marchingdream.blog.jp

Official SoundCloud
https://soundcloud.com/marchingdream

Official Allihoopa
https://allihoopa.com/marchingdream



// Version 1.1
// 1.1 - Change Asset Name & Files Rebuilding
//       & Add 26 New Sound Source(13 Loops & 3 Remix ,14 Music)